\BOOKMARK [1][]{section*.1}{\376\377\000E\000d\000u\000c\000a\000t\000i\000o\000n}{}% 1
\BOOKMARK [1][]{section*.2}{\376\377\000W\000o\000r\000k\000\040\000E\000x\000p\000e\000r\000i\000e\000n\000c\000e}{}% 2
\BOOKMARK [1][]{section*.3}{\376\377\000P\000r\000o\000j\000e\000c\000t\000\040\000P\000o\000r\000t\000f\000o\000l\000i\000o}{}% 3
\BOOKMARK [1][]{section*.4}{\376\377\000A\000d\000d\000i\000t\000i\000o\000n\000a\000l\000\040\000S\000k\000i\000l\000l\000s\000\040\000a\000n\000d\000\040\000A\000c\000h\000i\000e\000v\000e\000m\000e\000n\000t\000s}{}% 4
\BOOKMARK [2][]{section*.5}{\376\377\000S\000u\000b\000j\000e\000c\000t\000\040\000R\000e\000l\000a\000t\000e\000d}{section*.4}% 5
\BOOKMARK [2][]{section*.6}{\376\377\000I\000T\000\040\000S\000k\000i\000l\000l\000s}{section*.4}% 6
\BOOKMARK [2][]{section*.7}{\376\377\000L\000a\000n\000g\000u\000a\000g\000e\000s}{section*.4}% 7
\BOOKMARK [2][]{section*.8}{\376\377\000A\000c\000h\000i\000e\000v\000e\000m\000e\000n\000t\000s}{section*.4}% 8
\BOOKMARK [1][]{section*.9}{\376\377\000P\000u\000b\000l\000i\000c\000a\000t\000i\000o\000n\000\040\000L\000i\000s\000t\000s}{}% 9
